{
  "include": ["src"],
  "compilerOptions": {
    "jsx": "react-jsx",
    "baseUrl": "./src",
    "paths": {
      "components": ["components/index.jsx"],
      "constants": ["constants/index.jsx"],
      "icons": ["components/icons/index.jsx"],
      "hooks": ["hooks/index.jsx"],
      "locale": ["locale/index.jsx"],
      "pages": ["pages/index.jsx"],
      "services": ["services/index.jsx"],
      "providers": ["providers/index.jsx"],
      "styles/*": ["/styles/*"]
    }
  }
}
