<svg width="689" height="204" viewBox="0 0 689 204" fill="none" xmlns="http://www.w3.org/2000/svg">
<path d="M19.7834 83.1822C16.6922 83.1822 14.5628 82.495 13.395 81.1207C12.2272 79.7464 11.6434 77.9941 11.6434 75.8638C11.6434 73.871 12.0555 71.5003 12.8798 68.7516C13.7041 66.0029 14.5628 63.3573 15.4558 60.8148C16.6235 57.4476 18.0317 53.4964 19.6804 48.961C21.329 44.4257 23.0806 39.6842 24.9353 34.7366C26.8587 29.7889 28.7821 24.91 30.7055 20.0998C32.6976 15.2896 34.6209 10.926 36.4756 7.00916C31.7359 7.07788 27.7517 7.18095 24.5232 7.31838C21.3633 7.45582 18.5126 7.66197 15.971 7.93684C13.4294 8.14299 10.6473 8.52094 7.62485 9.07067C7.83093 6.73429 9.03304 4.91328 11.2312 3.60765C13.4294 2.30202 16.3831 1.37434 20.0925 0.824608C23.8019 0.27487 28.0265 0 32.7662 0C37.506 0 41.7306 0.206151 45.44 0.618453C49.2181 0.962039 52.7557 1.30562 56.053 1.64921C59.3502 1.9928 62.6474 2.19895 65.9446 2.26767C63.6091 4.3979 60.9301 5.73789 57.9076 6.28763C54.8852 6.83736 51.691 7.11223 48.3251 7.11223C47.5694 7.11223 46.7795 7.11223 45.9552 7.11223C45.1309 7.04352 44.3066 7.00916 43.4823 7.00916C42.6579 7.00916 41.8336 7.00916 41.0093 7.00916C38.8112 12.5065 36.2696 19.447 33.3845 27.8305C30.5681 36.214 27.7174 45.6626 24.8323 56.1763C23.8706 59.8184 22.9776 63.0824 22.1533 65.9685C21.3977 68.8547 20.7794 71.5003 20.2986 73.9054C19.8864 76.3105 19.6804 78.6469 19.6804 80.9145C19.6804 81.2581 19.6804 81.6361 19.6804 82.0484C19.6804 82.4607 19.7147 82.8386 19.7834 83.1822Z" fill="white"/>
<path d="M49.283 77.513C46.3292 77.513 44.2341 76.5854 42.9976 74.73C41.7612 72.9433 41.143 70.7444 41.143 68.1331C41.143 66.0029 41.4864 63.804 42.1733 61.5363C42.8603 59.2686 43.7533 57.1384 44.8523 55.1456C46.0201 53.1528 47.2909 51.5379 48.6648 50.301C50.1073 49.0641 51.5498 48.4457 52.9924 48.4457C53.3358 48.4457 53.6793 48.5144 54.0228 48.6518C54.4349 48.7205 54.8127 48.8236 55.1562 48.961C54.538 49.5108 53.7823 50.5415 52.8893 52.0533C52.065 53.4964 51.2751 55.1799 50.5195 57.104C49.7638 58.9594 49.1113 60.8148 48.5617 62.6701C48.0809 64.5255 47.8405 66.106 47.8405 67.4116C47.8405 69.4731 48.1839 70.9849 48.8708 71.9469C49.5578 72.8403 50.4508 73.2869 51.5498 73.2869C52.9924 73.2869 54.7097 72.531 56.7018 71.0193C58.6938 69.4388 60.6516 67.446 62.575 65.0409C60.6516 63.4604 59.1403 61.3989 58.0413 58.8563C57.0109 56.2451 56.4957 53.5994 56.4957 50.9195C56.4957 48.6518 56.8735 46.5216 57.6291 44.5288C58.4534 42.536 59.6212 40.9555 61.1324 39.7873C62.6437 38.5504 64.464 37.9319 66.5935 37.9319C69.4098 37.9319 71.2989 38.6878 72.2606 40.1996C73.2223 41.7114 73.7031 43.6011 73.7031 45.8688C73.7031 48.5487 73.0505 51.5379 71.7454 54.8364C70.4402 58.0661 68.7916 61.1927 66.7995 64.2163C68.036 64.9034 69.3412 65.247 70.715 65.247C71.8141 65.247 73.0505 65.0409 74.4244 64.6286C75.7982 64.1475 77.1377 63.3573 78.4429 62.2578C79.8167 61.1583 80.9158 59.6809 81.7401 57.8256L82.9766 58.8563C81.6027 62.086 79.645 64.388 77.1034 65.7624C74.6305 67.068 72.2606 67.7208 69.9937 67.7208C69.1007 67.7208 68.2421 67.6521 67.4178 67.5147C66.5935 67.3085 65.8035 67.0337 65.0479 66.6901C62.7123 69.7824 60.1364 72.3592 57.32 74.4208C54.5723 76.4823 51.8933 77.513 49.283 77.513ZM64.4297 62.3609C66.147 59.8184 67.5552 57.1727 68.6542 54.424C69.822 51.6066 70.4059 48.961 70.4059 46.4872C70.4059 44.4944 70.0968 43.0514 69.4785 42.158C68.929 41.196 68.2077 40.715 67.3147 40.715C65.9409 40.715 64.5327 41.7114 63.0902 43.7042C61.6476 45.697 60.9264 48.2051 60.9264 51.2287C60.9264 53.2215 61.2011 55.2487 61.7507 57.3102C62.3689 59.303 63.2619 60.9865 64.4297 62.3609Z" fill="white"/>
<path d="M85.8858 77.3069C84.718 77.3069 83.5159 76.9977 82.2795 76.3792C81.1117 75.8295 80.15 74.9018 79.3944 73.5962C78.5701 72.2905 78.1579 70.6413 78.1579 68.6485C78.1579 66.3808 78.7075 63.8383 79.8065 61.0209C80.9056 58.2035 82.3825 55.4205 84.2372 52.6718C86.0919 49.8544 88.2214 47.2775 90.6256 44.9411C93.0298 42.536 95.5371 40.6462 98.1474 39.2719C100.758 37.8288 103.334 37.1073 105.875 37.1073C107.318 37.1073 108.417 37.3822 109.173 37.9319C109.997 38.4129 110.409 39.2032 110.409 40.3027C110.409 40.5775 110.375 40.818 110.306 41.0242C110.306 41.2303 110.272 41.4708 110.203 41.7457C109.859 41.196 109.344 40.818 108.657 40.6119C108.039 40.337 107.249 40.1996 106.287 40.1996C104.089 40.1996 101.925 40.8868 99.796 42.2611C97.7352 43.5667 95.8119 45.319 94.0259 47.518C92.3085 49.6482 90.7973 51.9502 89.4922 54.424C88.187 56.8979 87.1566 59.303 86.401 61.6394C85.7141 63.907 85.3706 65.8311 85.3706 67.4116C85.3706 68.9234 85.7141 70.1259 86.401 71.0193C87.0879 71.9126 87.9809 72.3592 89.08 72.3592C90.9347 72.3592 93.1672 71.1911 95.7775 68.8547C98.4565 66.5183 101.17 63.2199 103.918 58.9594C106.665 54.6989 109.138 49.7169 111.336 44.0134C112.848 40.0278 114.393 35.9735 115.973 31.8504C117.622 27.7274 119.27 23.7762 120.919 19.9967C122.568 16.1486 124.147 12.747 125.659 9.79221C127.239 6.76865 128.715 4.3979 130.089 2.67997C131.532 0.893325 132.803 0 133.902 0C134.451 0 134.932 0.240509 135.344 0.721528C135.756 1.13383 135.963 1.68357 135.963 2.37074C135.963 3.47022 135.379 5.35994 134.211 8.03992C133.112 10.6512 131.635 13.8122 129.78 17.5229C127.994 21.1649 126.105 25.1505 124.113 29.4797C122.121 33.8089 120.198 38.2068 118.343 42.6734C116.557 47.14 115.08 51.4692 113.912 55.661C112.813 59.784 112.264 63.5634 112.264 66.9993C112.264 68.9234 112.367 70.3665 112.573 71.3285C112.779 72.2905 113.466 72.7716 114.634 72.7716C116.076 72.7716 117.759 72.1531 119.682 70.9162C121.606 69.6793 123.529 67.927 125.453 65.6593C127.376 63.3917 129.059 60.6773 130.501 57.5163L131.738 58.444C130.433 61.9486 128.647 65.1096 126.38 67.927C124.113 70.6757 121.675 72.8403 119.064 74.4208C116.523 76.07 114.084 76.8946 111.748 76.8946C109.207 76.8946 107.421 76.0356 106.39 74.3177C105.429 72.6685 104.948 70.9505 104.948 69.1639C104.948 67.9957 105.12 66.4496 105.463 64.5255C105.807 62.6014 106.287 60.4712 106.906 58.1348C104.708 61.7768 102.372 65.0752 99.899 68.0301C97.4261 70.9162 94.9876 73.1839 92.5833 74.8331C90.2478 76.4823 88.0153 77.3069 85.8858 77.3069Z" fill="white"/>
<path d="M135.618 77.513C132.664 77.513 130.569 76.5854 129.333 74.73C128.096 72.9433 127.478 70.7444 127.478 68.1331C127.478 66.0029 127.821 63.804 128.508 61.5363C129.195 59.2686 130.088 57.1384 131.187 55.1456C132.355 53.1528 133.626 51.5379 135 50.301C136.442 49.0641 137.885 48.4457 139.327 48.4457C139.671 48.4457 140.014 48.5144 140.358 48.6518C140.77 48.7205 141.148 48.8236 141.491 48.961C140.873 49.5108 140.117 50.5415 139.224 52.0533C138.4 53.4964 137.61 55.1799 136.854 57.104C136.099 58.9594 135.446 60.8148 134.897 62.6701C134.416 64.5255 134.175 66.106 134.175 67.4116C134.175 69.4731 134.519 70.9849 135.206 71.9469C135.893 72.8403 136.786 73.2869 137.885 73.2869C139.327 73.2869 141.045 72.531 143.037 71.0193C145.029 69.4388 146.987 67.446 148.91 65.0409C146.987 63.4604 145.475 61.3989 144.376 58.8563C143.346 56.2451 142.831 53.5994 142.831 50.9195C142.831 48.6518 143.208 46.5216 143.964 44.5288C144.788 42.536 145.956 40.9555 147.467 39.7873C148.979 38.5504 150.799 37.9319 152.928 37.9319C155.745 37.9319 157.634 38.6878 158.596 40.1996C159.557 41.7114 160.038 43.6011 160.038 45.8688C160.038 48.5487 159.386 51.5379 158.08 54.8364C156.775 58.0661 155.127 61.1927 153.135 64.2163C154.371 64.9034 155.676 65.247 157.05 65.247C158.149 65.247 159.386 65.0409 160.759 64.6286C162.133 64.1475 163.473 63.3573 164.778 62.2578C166.152 61.1583 167.251 59.6809 168.075 57.8256L169.312 58.8563C167.938 62.086 165.98 64.388 163.438 65.7624C160.965 67.068 158.596 67.7208 156.329 67.7208C155.436 67.7208 154.577 67.6521 153.753 67.5147C152.928 67.3085 152.138 67.0337 151.383 66.6901C149.047 69.7824 146.471 72.3592 143.655 74.4208C140.907 76.4823 138.228 77.513 135.618 77.513ZM150.765 62.3609C152.482 59.8184 153.89 57.1727 154.989 54.424C156.157 51.6066 156.741 48.961 156.741 46.4872C156.741 44.4944 156.432 43.0514 155.814 42.158C155.264 41.196 154.543 40.715 153.65 40.715C152.276 40.715 150.868 41.7114 149.425 43.7042C147.983 45.697 147.261 48.2051 147.261 51.2287C147.261 53.2215 147.536 55.2487 148.086 57.3102C148.704 59.303 149.597 60.9865 150.765 62.3609Z" fill="white"/>
<path d="M199.605 78.2346C197.475 78.2346 195.999 77.1695 195.174 75.0392C194.35 72.9777 193.938 70.2634 193.938 66.8962C193.938 66.7588 193.972 65.6937 194.041 63.7009C194.11 61.6394 194.281 58.2035 194.556 53.3933C194.693 51.5379 194.899 50.2667 195.174 49.5795C195.449 48.8923 196.342 48.5487 197.853 48.5487C199.021 48.5487 199.742 48.7892 200.017 49.2703C200.361 49.6826 200.532 50.5415 200.532 51.8472C200.532 54.1148 200.361 56.7948 200.017 59.8871C199.742 62.9106 199.605 65.7624 199.605 68.4424C199.605 70.4352 199.777 71.9126 200.12 72.8746C200.464 73.768 201.082 74.2146 201.975 74.2146C203.211 74.2146 204.585 73.5274 206.096 72.1531C207.608 70.71 209.153 68.8547 210.733 66.587C212.313 64.2506 213.79 61.7768 215.164 59.1655C216.606 56.5543 217.877 54.0461 218.976 51.641C219.114 46.9682 219.594 43.876 220.419 42.3642C221.312 40.7837 222.411 39.9934 223.716 39.9934C225.021 39.9934 225.948 40.4745 226.498 41.4365C227.116 42.3298 227.425 43.1544 227.425 43.9103C227.425 44.8036 227.116 45.7313 226.498 46.6934C225.948 47.6554 225.365 48.961 224.746 50.6102C224.128 52.2595 223.819 54.6302 223.819 57.7225C223.819 58.822 223.922 59.9901 224.128 61.2271C224.334 62.464 224.781 63.4947 225.468 64.3193C226.155 65.1439 227.219 65.5562 228.662 65.5562C230.104 65.5562 231.478 65.0065 232.783 63.907C234.157 62.7388 235.497 60.746 236.802 57.9286L238.141 58.9594C236.63 62.3953 234.947 64.6973 233.092 65.8655C231.306 67.0337 229.589 67.6178 227.94 67.6178C225.674 67.6178 223.785 66.7932 222.273 65.1439C220.762 63.4947 219.766 60.9865 219.285 57.6194C217.637 60.9865 215.679 64.2506 213.412 67.4116C211.214 70.5039 208.913 73.0808 206.508 75.1423C204.104 77.2038 201.803 78.2346 199.605 78.2346Z" fill="white"/>
<path d="M242.286 76.8946C239.607 76.8946 237.615 76.0356 236.31 74.3177C235.005 72.6685 234.352 70.6413 234.352 68.2362C234.352 66.6557 234.627 64.6629 235.177 62.2578C235.795 59.8527 236.585 57.3445 237.546 54.7333C238.508 52.0533 239.607 49.5451 240.844 47.2087C242.149 44.8724 243.523 42.9826 244.965 41.5396C246.408 40.0278 247.816 39.2719 249.19 39.2719C249.808 39.2719 250.323 39.4781 250.735 39.8904C251.216 40.2339 251.457 40.7837 251.457 41.5396C251.457 42.3642 250.907 43.7042 249.808 45.5595C248.778 47.4149 247.541 49.5451 246.099 51.9502C244.656 54.3553 243.385 56.8979 242.286 59.5778C241.256 62.1891 240.741 64.6973 240.741 67.1024C240.741 69.5762 241.153 71.2254 241.977 72.05C242.801 72.8746 244.072 73.2869 245.79 73.2869C248.125 73.2869 250.598 72.1187 253.208 69.7824C255.887 67.446 258.704 63.3573 261.657 57.5163L262.585 58.5471C260.593 64.4568 257.708 68.9921 253.93 72.1531C250.22 75.3141 246.339 76.8946 242.286 76.8946ZM254.651 29.6858C253.552 29.6858 252.556 29.411 251.663 28.8612C250.838 28.3115 250.426 27.4525 250.426 26.2843C250.426 24.8413 251.251 23.6044 252.899 22.5736C254.616 21.4741 256.299 20.9244 257.948 20.9244C258.978 20.9244 259.803 21.1649 260.421 21.6459C261.039 22.1269 261.348 22.9516 261.348 24.1197C261.348 25.4254 260.627 26.6966 259.185 27.9336C257.811 29.1017 256.299 29.6858 254.651 29.6858Z" fill="white"/>
<path d="M293.003 76.2761C290.599 76.2761 288.778 75.6577 287.542 74.4208C286.374 73.1839 285.79 71.6034 285.79 69.6793C285.79 68.2362 286.031 66.7244 286.511 65.1439C287.061 63.5634 287.576 61.9486 288.057 60.2994C288.538 58.5814 288.778 56.9322 288.778 55.3517C288.778 53.4276 288.366 52.122 287.542 51.4349C286.786 50.679 285.825 50.301 284.657 50.301C282.527 50.301 280.363 51.1943 278.165 52.981C275.967 54.6989 273.838 56.9322 271.777 59.6809C269.716 62.3609 267.793 65.1439 266.007 68.0301C264.221 70.9162 262.641 73.4931 261.267 75.7608C260.168 75.7608 259.138 75.5546 258.176 75.1423C257.145 74.7987 256.356 74.249 255.806 73.4931C255.806 73.1495 256.184 72.0844 256.939 70.2977C257.626 68.5111 258.451 66.3121 259.412 63.7009C260.374 61.0896 261.233 58.4097 261.988 55.661C262.744 52.9123 263.122 50.4041 263.122 48.1364C263.534 47.6554 264.186 47.1744 265.079 46.6934C265.972 46.2123 266.9 45.9718 267.861 45.9718C269.716 45.9718 270.644 46.8652 270.644 48.6518C270.644 49.7513 270.334 51.6066 269.716 54.2179C269.098 56.7604 268.308 59.4404 267.346 62.2578C269.201 59.4404 271.262 56.6574 273.529 53.9087C275.864 51.0913 278.337 48.7549 280.947 46.8995C283.558 45.0442 286.168 44.1165 288.778 44.1165C291.457 44.1165 293.381 45.0785 294.548 47.0026C295.785 48.9267 296.403 51.0569 296.403 53.3933C296.403 55.5235 296.06 57.5163 295.373 59.3717C294.686 61.1583 293.965 62.9106 293.209 64.6286C292.522 66.2778 292.179 67.9613 292.179 69.6793C292.179 71.1223 292.453 72.1531 293.003 72.7716C293.621 73.3213 294.377 73.5962 295.27 73.5962C296.987 73.5962 298.704 72.8059 300.422 71.2254C302.139 69.5762 303.788 67.5147 305.368 65.0409C307.016 62.567 308.459 60.0589 309.695 57.5163L310.829 58.8563C309.386 62.2235 307.772 65.2127 305.986 67.8239C304.2 70.4352 302.242 72.4967 300.113 74.0085C297.983 75.5202 295.613 76.2761 293.003 76.2761Z" fill="white"/>
<path d="M312.562 78.1315C311.257 78.1315 310.226 77.032 309.471 74.8331C308.715 72.6341 308.337 70.1603 308.337 67.4116C308.337 64.1132 308.887 60.1963 309.986 55.661C311.085 51.1256 312.527 46.3498 314.313 41.3334C316.099 36.3171 318.091 31.4038 320.29 26.5936C322.556 21.7834 324.858 17.4198 327.193 13.5029C329.529 9.58605 331.727 6.45942 333.788 4.12304C335.848 1.78665 337.634 0.618453 339.146 0.618453C340.382 0.618453 341.241 1.37434 341.722 2.88612C342.271 4.32919 342.546 5.73789 342.546 7.11223C342.546 9.03632 342.099 11.3727 341.206 14.1214C340.382 16.8701 339.214 19.8249 337.703 22.9859C336.192 26.0782 334.44 29.1361 332.448 32.1597C330.456 35.1832 328.292 37.9663 325.957 40.5088C323.621 42.9826 321.251 44.9411 318.847 46.3841C318.023 48.3769 317.301 50.6102 316.683 53.0841C316.134 55.5579 315.722 57.9973 315.447 60.4025C315.172 62.7388 315.035 64.8347 315.035 66.6901C315.035 67.446 315.035 68.0988 315.035 68.6485C315.103 69.1983 315.172 69.7136 315.241 70.1947C316.202 67.3773 317.233 64.6629 318.332 62.0517C319.5 59.3717 320.736 56.9322 322.041 54.7333C323.346 52.4656 324.72 50.5072 326.163 48.858C327.674 47.14 329.254 45.8344 330.903 44.9411C332.551 43.979 334.303 43.498 336.158 43.498C338.081 43.498 339.592 43.979 340.691 44.9411C341.859 45.8344 342.683 47.0026 343.164 48.4457C343.714 49.82 343.988 51.2631 343.988 52.7748C343.988 54.9051 343.611 56.9666 342.855 58.9594C342.168 60.9522 341.447 62.8763 340.691 64.7316C339.936 66.587 339.558 68.3736 339.558 70.0916C339.558 71.4659 339.833 72.4623 340.382 73.0808C341 73.6992 341.756 74.0085 342.649 74.0085C344.229 74.0085 345.981 73.2526 347.904 71.7408C349.896 70.229 351.854 68.2362 353.777 65.7624C355.7 63.2199 357.349 60.4712 358.723 57.5163L360.062 58.7532C358.62 62.1204 356.868 65.1783 354.807 67.927C352.747 70.607 350.48 72.7372 348.007 74.3177C345.534 75.8982 342.958 76.6884 340.279 76.6884C337.943 76.6884 336.157 76.07 334.921 74.8331C333.753 73.5962 333.169 72.05 333.169 70.1947C333.169 68.7516 333.444 67.1367 333.994 65.3501C334.543 63.5634 335.058 61.7424 335.539 59.8871C336.089 58.0317 336.364 56.2794 336.364 54.6302C336.364 52.8436 335.986 51.5723 335.23 50.8164C334.475 50.0605 333.547 49.6826 332.448 49.6826C330.731 49.6826 329.185 50.3697 327.811 51.7441C326.438 53.1184 325.167 54.9051 323.999 57.104C322.9 59.2343 321.835 61.5019 320.805 63.907C319.843 66.3121 318.916 68.6142 318.023 70.8131C317.13 72.9433 316.237 74.6956 315.344 76.07C314.451 77.4443 313.523 78.1315 312.562 78.1315ZM320.187 42.3642C322.11 40.8524 323.965 38.9283 325.751 36.5919C327.605 34.2555 329.323 31.7817 330.903 29.1705C332.482 26.4905 333.891 23.8792 335.127 21.3367C336.364 18.7942 337.325 16.4921 338.012 14.4306C338.699 12.3691 339.043 10.823 339.043 9.79221C339.043 9.44862 339.008 9.24247 338.94 9.17375C338.871 9.03632 338.768 8.9676 338.63 8.9676C338.15 8.9676 337.154 9.92964 335.642 11.8537C334.2 13.7091 332.517 16.2173 330.593 19.3783C328.67 22.5393 326.781 26.1125 324.926 30.0981C323.072 34.0837 321.492 38.1724 320.187 42.3642Z" fill="white"/>
<path d="M363.832 77.513C360.878 77.513 358.783 76.5854 357.547 74.73C356.31 72.9433 355.692 70.7444 355.692 68.1331C355.692 66.0029 356.036 63.804 356.723 61.5363C357.409 59.2686 358.302 57.1384 359.402 55.1456C360.569 53.1528 361.84 51.5379 363.214 50.301C364.656 49.0641 366.099 48.4457 367.542 48.4457C367.885 48.4457 368.229 48.5144 368.572 48.6518C368.984 48.7205 369.362 48.8236 369.705 48.961C369.087 49.5108 368.332 50.5415 367.439 52.0533C366.614 53.4964 365.824 55.1799 365.069 57.104C364.313 58.9594 363.66 60.8148 363.111 62.6701C362.63 64.5255 362.39 66.106 362.39 67.4116C362.39 69.4731 362.733 70.9849 363.42 71.9469C364.107 72.8403 365 73.2869 366.099 73.2869C367.542 73.2869 369.259 72.531 371.251 71.0193C373.243 69.4388 375.201 67.446 377.124 65.0409C375.201 63.4604 373.69 61.3989 372.59 58.8563C371.56 56.2451 371.045 53.5994 371.045 50.9195C371.045 48.6518 371.423 46.5216 372.178 44.5288C373.003 42.536 374.17 40.9555 375.682 39.7873C377.193 38.5504 379.013 37.9319 381.143 37.9319C383.959 37.9319 385.848 38.6878 386.81 40.1996C387.771 41.7114 388.252 43.6011 388.252 45.8688C388.252 48.5487 387.6 51.5379 386.295 54.8364C384.989 58.0661 383.341 61.1927 381.349 64.2163C382.585 64.9034 383.89 65.247 385.264 65.247C386.363 65.247 387.6 65.0409 388.974 64.6286C390.347 64.1475 391.687 63.3573 392.992 62.2578C394.366 61.1583 395.465 59.6809 396.289 57.8256L397.526 58.8563C396.152 62.086 394.194 64.388 391.653 65.7624C389.18 67.068 386.81 67.7208 384.543 67.7208C383.65 67.7208 382.791 67.6521 381.967 67.5147C381.143 67.3085 380.353 67.0337 379.597 66.6901C377.262 69.7824 374.686 72.3592 371.869 74.4208C369.122 76.4823 366.443 77.513 363.832 77.513ZM378.979 62.3609C380.696 59.8184 382.104 57.1727 383.203 54.424C384.371 51.6066 384.955 48.961 384.955 46.4872C384.955 44.4944 384.646 43.0514 384.028 42.158C383.478 41.196 382.757 40.715 381.864 40.715C380.49 40.715 379.082 41.7114 377.639 43.7042C376.197 45.697 375.476 48.2051 375.476 51.2287C375.476 53.2215 375.75 55.2487 376.3 57.3102C376.918 59.303 377.811 60.9865 378.979 62.3609Z" fill="white"/>
<path d="M11.5403 204C8.24308 204 5.49539 202.901 3.29723 200.702C1.09908 198.503 0 195.204 0 190.806C0 187.37 0.652577 184.038 1.95773 180.808C3.33158 177.51 5.11758 174.555 7.31573 171.943C9.51389 169.332 11.9525 167.271 14.6315 165.759C17.3105 164.178 19.9551 163.388 22.5654 163.388C25.3818 163.388 27.3052 164.213 28.3356 165.862C29.366 167.511 29.8812 169.229 29.8812 171.016C29.8812 173.009 29.4003 174.761 28.4386 176.273C27.5456 177.784 26.3092 178.54 24.7292 178.54C23.5615 178.54 22.5654 178.025 21.7411 176.994C22.7715 176.444 23.6645 175.345 24.4201 173.696C25.1757 171.978 25.5536 170.363 25.5536 168.851C25.5536 168.027 25.3818 167.408 25.0384 166.996C24.7636 166.515 24.1797 166.274 23.2867 166.274C21.432 166.274 19.5086 167.099 17.5165 168.748C15.5932 170.397 13.7728 172.528 12.0555 175.139C10.4069 177.75 9.03304 180.499 7.93397 183.385C6.90358 186.271 6.38839 188.985 6.38839 191.528C6.38839 193.658 6.90358 195.617 7.93397 197.403C8.96435 199.19 10.9564 200.083 13.9102 200.083C16.6579 200.083 19.4056 199.327 22.1533 197.815C24.9697 196.304 27.58 194.139 29.9842 191.322C32.3884 188.504 34.3118 185.206 35.7544 181.426L37.0939 182.457C35.5139 186.58 33.3501 190.291 30.6024 193.589C27.8547 196.819 24.8323 199.362 21.535 201.217C18.2378 203.072 14.9062 204 11.5403 204Z" fill="white"/>
<path d="M40.9312 201.526C37.9775 201.526 35.8824 200.599 34.6459 198.743C33.4094 196.956 32.7912 194.758 32.7912 192.146C32.7912 190.016 33.1347 187.817 33.8216 185.549C34.5085 183.282 35.4015 181.152 36.5006 179.159C37.6684 177.166 38.9392 175.551 40.313 174.314C41.7555 173.077 43.1981 172.459 44.6406 172.459C44.9841 172.459 45.3276 172.528 45.671 172.665C46.0832 172.734 46.461 172.837 46.8044 172.974C46.1862 173.524 45.4306 174.555 44.5376 176.066C43.7133 177.51 42.9233 179.193 42.1677 181.117C41.4121 182.973 40.7595 184.828 40.21 186.683C39.7291 188.539 39.4887 190.119 39.4887 191.425C39.4887 193.486 39.8322 194.998 40.5191 195.96C41.206 196.853 42.099 197.3 43.1981 197.3C44.6406 197.3 46.3579 196.544 48.35 195.032C50.3421 193.452 52.2998 191.459 54.2232 189.054C52.2998 187.474 50.7886 185.412 49.6895 182.869C48.6591 180.258 48.1439 177.613 48.1439 174.933C48.1439 172.665 48.5217 170.535 49.2774 168.542C50.1017 166.549 51.2694 164.969 52.7807 163.8C54.2919 162.564 56.1122 161.945 58.2417 161.945C61.0581 161.945 62.9471 162.701 63.9088 164.213C64.8705 165.724 65.3514 167.614 65.3514 169.882C65.3514 172.562 64.6988 175.551 63.3936 178.849C62.0885 182.079 60.4399 185.206 58.4478 188.229C59.6843 188.917 60.9894 189.26 62.3633 189.26C63.4623 189.26 64.6988 189.054 66.0726 188.642C67.4465 188.161 68.786 187.37 70.0911 186.271C71.465 185.171 72.5641 183.694 73.3884 181.839L74.6248 182.869C73.251 186.099 71.2933 188.401 68.7516 189.776C66.2787 191.081 63.9088 191.734 61.642 191.734C60.749 191.734 59.8903 191.665 59.066 191.528C58.2417 191.322 57.4517 191.047 56.6961 190.703C54.3606 193.795 51.7846 196.372 48.9682 198.434C46.2206 200.495 43.5416 201.526 40.9312 201.526ZM56.0779 186.374C57.7952 183.831 59.2034 181.186 60.3025 178.437C61.4702 175.62 62.0541 172.974 62.0541 170.5C62.0541 168.508 61.745 167.064 61.1268 166.171C60.5772 165.209 59.856 164.728 58.963 164.728C57.5891 164.728 56.1809 165.724 54.7384 167.717C53.2959 169.71 52.5746 172.218 52.5746 175.242C52.5746 177.235 52.8494 179.262 53.3989 181.323C54.0171 183.316 54.9101 185 56.0779 186.374Z" fill="white"/>
<path d="M104.736 200.289C102.332 200.289 100.512 199.671 99.2752 198.434C98.1074 197.197 97.5235 195.617 97.5235 193.692C97.5235 192.249 97.764 190.738 98.2448 189.157C98.7943 187.577 99.3095 185.962 99.7904 184.313C100.271 182.595 100.512 180.945 100.512 179.365C100.512 177.441 100.099 176.135 99.2752 175.448C98.5196 174.692 97.5579 174.314 96.3901 174.314C94.2606 174.314 92.0968 175.207 89.8987 176.994C87.7005 178.712 85.5711 180.945 83.5103 183.694C81.4495 186.374 79.5261 189.157 77.7401 192.043C75.9541 194.929 74.3742 197.506 73.0004 199.774C71.9013 199.774 70.8709 199.568 69.9092 199.155C68.8788 198.812 68.0889 198.262 67.5393 197.506C67.5393 197.163 67.9171 196.098 68.6727 194.311C69.3597 192.524 70.184 190.325 71.1457 187.714C72.1074 185.103 72.966 182.423 73.7216 179.674C74.4773 176.925 74.8551 174.417 74.8551 172.15C75.2672 171.669 75.9198 171.188 76.8128 170.707C77.7058 170.225 78.6331 169.985 79.5948 169.985C81.4495 169.985 82.3769 170.878 82.3769 172.665C82.3769 173.764 82.0678 175.62 81.4495 178.231C80.8313 180.774 80.0413 183.454 79.0796 186.271C80.9343 183.454 82.9951 180.67 85.2619 177.922C87.5975 175.104 90.0704 172.768 92.6807 170.913C95.291 169.057 97.9013 168.13 100.512 168.13C103.191 168.13 105.114 169.092 106.282 171.016C107.518 172.94 108.136 175.07 108.136 177.406C108.136 179.537 107.793 181.529 107.106 183.385C106.419 185.171 105.698 186.924 104.942 188.642C104.255 190.291 103.912 191.974 103.912 193.692C103.912 195.135 104.187 196.166 104.736 196.785C105.354 197.334 106.11 197.609 107.003 197.609C108.72 197.609 110.438 196.819 112.155 195.239C113.872 193.589 115.521 191.528 117.101 189.054C118.749 186.58 120.192 184.072 121.428 181.529L122.562 182.869C121.119 186.237 119.505 189.226 117.719 191.837C115.933 194.448 113.975 196.51 111.846 198.022C109.716 199.533 107.347 200.289 104.736 200.289Z" fill="white"/>
<path d="M128.21 202.969C125.257 202.969 122.99 202.11 121.41 200.392C119.83 198.674 119.04 196.132 119.04 192.765C119.04 189.741 119.59 186.03 120.689 181.633C121.856 177.166 123.299 172.596 125.016 167.923C124.329 167.786 123.677 167.683 123.059 167.614C122.44 167.477 121.856 167.305 121.307 167.099V165.243C121.856 165.312 122.509 165.381 123.265 165.45C124.02 165.518 124.879 165.587 125.841 165.656C127.283 161.945 128.829 158.372 130.477 154.936C132.126 151.431 133.74 148.339 135.32 145.659C136.969 142.91 138.514 140.746 139.957 139.165C141.468 137.516 142.739 136.691 143.769 136.691C144.319 136.691 144.8 136.898 145.212 137.31C145.693 137.653 145.933 138.203 145.933 138.959C145.933 140.127 145.212 142.051 143.769 144.731C142.327 147.343 140.541 150.469 138.411 154.111C136.282 157.753 134.221 161.705 132.229 165.965C132.847 165.965 133.465 165.965 134.084 165.965C134.771 165.965 135.423 165.965 136.041 165.965C138.308 165.965 140.678 165.931 143.151 165.862C145.693 165.793 148.234 165.621 150.776 165.347V167.202C146.998 167.614 143.598 167.923 140.575 168.13C137.621 168.336 134.977 168.439 132.641 168.439C132.366 168.439 132.092 168.439 131.817 168.439C131.611 168.439 131.37 168.439 131.096 168.439C129.516 172.081 128.176 175.826 127.077 179.674C125.978 183.522 125.428 187.267 125.428 190.909C125.428 193.864 125.875 195.994 126.768 197.3C127.661 198.537 129.138 199.155 131.199 199.155C134.771 199.155 138.274 197.575 141.709 194.414C145.143 191.253 148.166 186.958 150.776 181.529L152.115 182.56C150.467 186.408 148.372 189.879 145.83 192.971C143.357 196.063 140.609 198.503 137.587 200.289C134.565 202.076 131.439 202.969 128.21 202.969Z" fill="white"/>
<path d="M153.78 203.072C151.651 203.072 149.865 202.351 148.422 200.908C146.911 199.533 146.155 197.403 146.155 194.517C146.155 192.043 146.705 189.398 147.804 186.58C148.903 183.694 150.414 180.877 152.338 178.128C154.261 175.311 156.425 172.768 158.829 170.5C161.302 168.164 163.878 166.309 166.557 164.934C169.305 163.56 172.018 162.873 174.697 162.873C177.376 162.873 179.608 163.594 181.394 165.037C183.18 166.412 184.073 168.267 184.073 170.603C184.073 172.321 183.593 173.49 182.631 174.108C181.738 174.726 180.536 175.036 179.025 175.036C179.162 174.486 179.265 173.902 179.334 173.283C179.471 172.596 179.54 171.978 179.54 171.428C179.54 169.848 179.162 168.508 178.406 167.408C177.651 166.24 176.346 165.656 174.491 165.656C172.568 165.656 170.61 166.343 168.618 167.717C166.626 169.023 164.702 170.81 162.848 173.077C160.993 175.276 159.344 177.681 157.902 180.293C156.459 182.904 155.326 185.481 154.501 188.023C153.677 190.566 153.265 192.833 153.265 194.826C153.265 197.506 154.192 198.846 156.047 198.846C157.627 198.846 159.344 198.125 161.199 196.682C163.054 195.17 164.943 193.28 166.866 191.012C168.858 188.676 170.747 186.271 172.533 183.797C174.319 181.323 175.899 179.056 177.273 176.994C177.548 176.582 177.719 176.376 177.788 176.376C178.2 176.444 178.715 176.582 179.334 176.788C180.021 176.994 180.604 177.269 181.085 177.613C181.566 177.956 181.807 178.403 181.807 178.953C181.807 179.571 181.497 180.43 180.879 181.529C180.261 182.56 179.574 183.763 178.818 185.137C178.063 186.511 177.376 187.92 176.758 189.363C176.139 190.738 175.83 192.043 175.83 193.28C175.83 194.311 176.105 195.342 176.655 196.372C177.204 197.334 178.097 197.815 179.334 197.815C181.188 197.815 183.627 196.475 186.649 193.795C189.672 191.047 192.729 186.958 195.82 181.529L196.85 182.56C195.408 186.271 193.553 189.535 191.286 192.352C189.019 195.17 186.581 197.369 183.97 198.949C181.429 200.53 178.922 201.32 176.449 201.32C173.907 201.32 172.018 200.564 170.781 199.052C169.614 197.541 169.03 195.891 169.03 194.105C169.03 193.692 169.064 193.246 169.133 192.765C169.202 192.215 169.27 191.665 169.339 191.116C166.385 195.101 163.672 198.09 161.199 200.083C158.795 202.076 156.322 203.072 153.78 203.072Z" fill="white"/>
<path d="M228.206 201.32C225.871 201.32 223.982 200.289 222.539 198.228C221.165 196.098 220.478 193.658 220.478 190.909C220.478 188.917 220.787 186.615 221.406 184.003C222.093 181.392 222.917 178.815 223.879 176.273C224.84 173.73 225.836 171.634 226.867 169.985C227.897 168.336 228.79 167.511 229.546 167.511C229.889 167.511 230.473 167.717 231.297 168.13C232.122 168.473 232.809 168.954 233.358 169.573C232.602 170.741 231.675 172.527 230.576 174.933C229.477 177.338 228.515 179.915 227.691 182.663C226.867 185.412 226.455 187.955 226.455 190.291C226.455 190.841 226.523 191.7 226.661 192.868C226.798 193.967 227.141 194.964 227.691 195.857C228.24 196.75 229.065 197.197 230.164 197.197C231.469 197.197 232.809 196.544 234.182 195.239C235.556 193.864 236.93 192.112 238.304 189.982C239.746 187.851 241.12 185.549 242.425 183.076C243.731 180.602 244.933 178.231 246.032 175.963C247.2 173.696 248.161 171.806 248.917 170.294C249.329 170.363 249.913 170.5 250.669 170.707C251.493 170.913 252.214 171.188 252.832 171.531C253.519 171.875 253.863 172.356 253.863 172.974C253.863 173.249 253.519 174.177 252.832 175.757C252.145 177.269 251.321 179.159 250.359 181.426C249.466 183.625 248.676 185.859 247.99 188.126C247.303 190.394 246.959 192.387 246.959 194.105C246.959 195.342 247.2 196.338 247.68 197.094C248.23 197.85 249.123 198.228 250.359 198.228C251.802 198.228 253.554 197.575 255.614 196.269C257.675 194.964 259.77 193.074 261.9 190.6C264.029 188.058 265.918 185.034 267.567 181.529L268.906 182.457C267.464 186.168 265.575 189.466 263.239 192.352C260.904 195.17 258.431 197.369 255.82 198.949C253.21 200.53 250.669 201.32 248.196 201.32C246.41 201.32 244.967 200.976 243.868 200.289C242.838 199.602 242.082 198.674 241.601 197.506C241.189 196.338 240.983 195.067 240.983 193.692C240.983 192.868 241.052 192.043 241.189 191.219C241.326 190.325 241.498 189.432 241.704 188.539C240.468 190.806 239.128 192.937 237.686 194.929C236.243 196.853 234.732 198.4 233.152 199.568C231.572 200.736 229.923 201.32 228.206 201.32Z" fill="white"/>
<path d="M317.59 201.423C315.185 201.423 313.434 200.667 312.335 199.155C311.236 197.712 310.686 195.96 310.686 193.899C310.686 192.181 310.926 190.463 311.407 188.745C311.957 187.027 312.472 185.343 312.953 183.694C313.502 182.045 313.777 180.567 313.777 179.262C313.777 177.887 313.468 176.925 312.85 176.376C312.232 175.826 311.545 175.551 310.789 175.551C309.072 175.551 307.183 176.891 305.122 179.571C303.13 182.251 300.52 186.03 297.291 190.909C296.192 192.559 295.265 194.242 294.509 195.96C293.753 197.609 293.032 199.121 292.345 200.495C291.796 200.495 291.109 200.427 290.284 200.289C289.46 200.152 288.705 199.911 288.018 199.568C287.399 199.293 287.09 198.915 287.09 198.434C287.09 197.953 287.399 196.819 288.018 195.032C288.705 193.177 289.46 191.047 290.284 188.642C291.177 186.168 291.933 183.694 292.551 181.22C293.238 178.678 293.582 176.513 293.582 174.726C293.582 173.558 293.376 172.631 292.963 171.943C292.62 171.188 291.967 170.81 291.006 170.81C289.494 170.81 287.674 171.737 285.545 173.593C283.415 175.379 281.217 177.75 278.95 180.705C276.683 183.66 274.52 186.924 272.459 190.497C270.467 194.002 268.852 197.506 267.616 201.011C266.998 201.011 266.242 200.908 265.349 200.702C264.456 200.495 263.7 200.221 263.082 199.877C262.395 199.533 262.052 199.19 262.052 198.846C262.052 198.434 262.43 197.231 263.185 195.239C263.872 193.177 264.697 190.738 265.658 187.92C266.551 185.034 267.341 182.114 268.028 179.159C268.784 176.204 269.162 173.593 269.162 171.325C269.574 170.844 270.226 170.363 271.119 169.882C272.012 169.401 272.94 169.16 273.901 169.16C274.863 169.16 275.55 169.401 275.962 169.882C276.443 170.363 276.683 171.016 276.683 171.84C276.683 172.734 276.409 174.28 275.859 176.479C275.378 178.609 274.76 180.98 274.004 183.591C275.378 181.392 276.924 179.159 278.641 176.891C280.427 174.555 282.282 172.424 284.205 170.5C286.129 168.576 288.052 167.03 289.975 165.862C291.967 164.625 293.891 164.007 295.745 164.007C297.875 164.007 299.317 164.797 300.073 166.377C300.897 167.889 301.31 169.71 301.31 171.84C301.31 173.558 301.103 175.379 300.691 177.303C300.348 179.159 299.936 180.911 299.455 182.56C298.974 184.141 298.528 185.412 298.115 186.374C299.558 183.763 301.138 181.255 302.855 178.849C304.641 176.376 306.565 174.383 308.625 172.871C310.686 171.291 312.884 170.5 315.22 170.5C317.418 170.5 318.929 171.153 319.753 172.459C320.646 173.764 321.093 175.311 321.093 177.097C321.093 178.884 320.784 180.842 320.166 182.973C319.547 185.103 318.895 187.164 318.208 189.157C317.59 191.15 317.281 192.868 317.281 194.311C317.281 195.204 317.487 196.029 317.899 196.785C318.38 197.472 319.204 197.815 320.372 197.815C322.295 197.815 324.081 196.956 325.73 195.239C327.447 193.452 329.027 191.322 330.469 188.848C331.912 186.305 333.148 183.866 334.179 181.529L335.415 182.973C334.316 185.859 332.908 188.745 331.191 191.631C329.473 194.448 327.447 196.785 325.111 198.64C322.845 200.495 320.337 201.423 317.59 201.423Z" fill="white"/>
<path d="M337.217 203.072C335.087 203.072 333.301 202.351 331.859 200.908C330.348 199.533 329.592 197.403 329.592 194.517C329.592 192.043 330.142 189.398 331.241 186.58C332.34 183.694 333.851 180.877 335.774 178.128C337.698 175.311 339.862 172.768 342.266 170.5C344.739 168.164 347.315 166.309 349.994 164.934C352.741 163.56 355.455 162.873 358.134 162.873C360.813 162.873 363.045 163.594 364.831 165.037C366.617 166.412 367.51 168.267 367.51 170.603C367.51 172.321 367.029 173.49 366.068 174.108C365.175 174.726 363.973 175.036 362.461 175.036C362.599 174.486 362.702 173.902 362.77 173.283C362.908 172.596 362.977 171.978 362.977 171.428C362.977 169.848 362.599 168.508 361.843 167.408C361.087 166.24 359.782 165.656 357.928 165.656C356.004 165.656 354.046 166.343 352.054 167.717C350.062 169.023 348.139 170.81 346.284 173.077C344.43 175.276 342.781 177.681 341.338 180.293C339.896 182.904 338.762 185.481 337.938 188.023C337.114 190.566 336.702 192.833 336.702 194.826C336.702 197.506 337.629 198.846 339.484 198.846C341.064 198.846 342.781 198.125 344.636 196.682C346.49 195.17 348.379 193.28 350.303 191.012C352.295 188.676 354.184 186.271 355.97 183.797C357.756 181.323 359.336 179.056 360.71 176.994C360.984 176.582 361.156 176.376 361.225 176.376C361.637 176.444 362.152 176.582 362.77 176.788C363.457 176.994 364.041 177.269 364.522 177.613C365.003 177.956 365.243 178.403 365.243 178.953C365.243 179.571 364.934 180.43 364.316 181.529C363.698 182.56 363.011 183.763 362.255 185.137C361.5 186.511 360.813 187.92 360.194 189.363C359.576 190.738 359.267 192.043 359.267 193.28C359.267 194.311 359.542 195.342 360.091 196.372C360.641 197.334 361.534 197.815 362.77 197.815C364.625 197.815 367.064 196.475 370.086 193.795C373.109 191.047 376.165 186.958 379.257 181.529L380.287 182.56C378.844 186.271 376.99 189.535 374.723 192.352C372.456 195.17 370.017 197.369 367.407 198.949C364.866 200.53 362.358 201.32 359.885 201.32C357.344 201.32 355.455 200.564 354.218 199.052C353.05 197.541 352.467 195.891 352.467 194.105C352.467 193.692 352.501 193.246 352.57 192.765C352.638 192.215 352.707 191.665 352.776 191.116C349.822 195.101 347.109 198.09 344.636 200.083C342.231 202.076 339.758 203.072 337.217 203.072Z" fill="white"/>
<path d="M408.758 202.145C407.453 202.145 406.422 201.045 405.667 198.846C404.911 196.647 404.533 194.173 404.533 191.425C404.533 188.126 405.083 184.209 406.182 179.674C407.281 175.139 408.723 170.363 410.509 165.347C412.295 160.33 414.288 155.417 416.486 150.607C418.753 145.796 421.054 141.433 423.389 137.516C425.725 133.599 427.923 130.473 429.984 128.136C432.045 125.8 433.83 124.632 435.342 124.632C436.578 124.632 437.437 125.387 437.918 126.899C438.467 128.342 438.742 129.751 438.742 131.125C438.742 133.049 438.295 135.386 437.402 138.135C436.578 140.883 435.41 143.838 433.899 146.999C432.388 150.091 430.636 153.149 428.644 156.173C426.652 159.196 424.488 161.979 422.153 164.522C419.817 166.996 417.447 168.954 415.043 170.397C414.219 172.39 413.498 174.623 412.879 177.097C412.33 179.571 411.918 182.01 411.643 184.416C411.368 186.752 411.231 188.848 411.231 190.703C411.231 191.459 411.231 192.112 411.231 192.662C411.299 193.211 411.368 193.727 411.437 194.208C412.398 191.39 413.429 188.676 414.528 186.065C415.696 183.385 416.932 180.945 418.237 178.746C419.542 176.479 420.916 174.52 422.359 172.871C423.87 171.153 425.45 169.848 427.099 168.954C428.747 167.992 430.499 167.511 432.354 167.511C434.277 167.511 435.788 167.992 436.887 168.954C438.055 169.848 438.879 171.016 439.36 172.459C439.91 173.833 440.185 175.276 440.185 176.788C440.185 178.918 439.807 180.98 439.051 182.973C438.364 184.965 437.643 186.889 436.887 188.745C436.132 190.6 435.754 192.387 435.754 194.105C435.754 195.479 436.029 196.475 436.578 197.094C437.196 197.712 437.952 198.022 438.845 198.022C440.425 198.022 442.177 197.266 444.1 195.754C446.092 194.242 448.05 192.249 449.973 189.776C451.897 187.233 453.545 184.484 454.919 181.529L456.259 182.766C454.816 186.134 453.064 189.191 451.004 191.94C448.943 194.62 446.676 196.75 444.203 198.331C441.73 199.911 439.154 200.702 436.475 200.702C434.14 200.702 432.354 200.083 431.117 198.846C429.949 197.609 429.366 196.063 429.366 194.208C429.366 192.765 429.64 191.15 430.19 189.363C430.739 187.577 431.255 185.756 431.735 183.9C432.285 182.045 432.56 180.293 432.56 178.643C432.56 176.857 432.182 175.585 431.426 174.83C430.671 174.074 429.743 173.696 428.644 173.696C426.927 173.696 425.381 174.383 424.008 175.757C422.634 177.132 421.363 178.918 420.195 181.117C419.096 183.247 418.031 185.515 417.001 187.92C416.039 190.325 415.112 192.627 414.219 194.826C413.326 196.956 412.433 198.709 411.54 200.083C410.647 201.457 409.719 202.145 408.758 202.145ZM416.383 166.377C418.306 164.866 420.161 162.941 421.947 160.605C423.801 158.269 425.519 155.795 427.099 153.184C428.679 150.504 430.087 147.892 431.323 145.35C432.56 142.807 433.521 140.505 434.208 138.444C434.895 136.382 435.239 134.836 435.239 133.805C435.239 133.462 435.204 133.256 435.136 133.187C435.067 133.049 434.964 132.981 434.827 132.981C434.346 132.981 433.35 133.943 431.838 135.867C430.396 137.722 428.713 140.23 426.79 143.391C424.866 146.552 422.977 150.126 421.122 154.111C419.268 158.097 417.688 162.186 416.383 166.377Z" fill="white"/>
<path d="M460.337 200.908C457.658 200.908 455.666 200.049 454.361 198.331C453.056 196.682 452.403 194.654 452.403 192.249C452.403 190.669 452.678 188.676 453.228 186.271C453.846 183.866 454.636 181.358 455.598 178.746C456.559 176.066 457.658 173.558 458.895 171.222C460.2 168.885 461.574 166.996 463.016 165.553C464.459 164.041 465.867 163.285 467.241 163.285C467.859 163.285 468.374 163.491 468.787 163.903C469.267 164.247 469.508 164.797 469.508 165.553C469.508 166.377 468.958 167.717 467.859 169.573C466.829 171.428 465.592 173.558 464.15 175.963C462.707 178.368 461.436 180.911 460.337 183.591C459.307 186.202 458.792 188.71 458.792 191.116C458.792 193.589 459.204 195.239 460.028 196.063C460.853 196.888 462.123 197.3 463.841 197.3C466.176 197.3 468.649 196.132 471.259 193.795C473.938 191.459 476.755 187.37 479.709 181.529L480.636 182.56C478.644 188.47 475.759 193.005 471.981 196.166C468.271 199.327 464.39 200.908 460.337 200.908ZM472.702 153.699C471.603 153.699 470.607 153.424 469.714 152.874C468.89 152.325 468.477 151.466 468.477 150.297C468.477 148.854 469.302 147.618 470.95 146.587C472.668 145.487 474.351 144.938 475.999 144.938C477.03 144.938 477.854 145.178 478.472 145.659C479.09 146.14 479.4 146.965 479.4 148.133C479.4 149.439 478.678 150.71 477.236 151.947C475.862 153.115 474.351 153.699 472.702 153.699Z" fill="white"/>
<path d="M488.592 203.485C485.363 203.485 482.787 202.763 480.864 201.32C479.009 199.946 477.704 198.228 476.948 196.166C476.124 194.105 475.712 192.043 475.712 189.982C475.712 187.92 475.987 186.34 476.536 185.24C477.086 184.141 477.738 183.316 478.494 182.766C479.318 182.217 480.074 181.804 480.761 181.529C481.516 181.255 482.032 180.98 482.306 180.705C484.367 178.437 486.256 176.066 487.973 173.593C489.691 171.119 491.202 168.508 492.507 165.759V164.522C492.507 161.979 492.919 160.193 493.744 159.162C494.637 158.063 495.564 157.513 496.526 157.513C497.075 157.513 497.487 157.65 497.762 157.925C498.037 158.2 498.174 158.509 498.174 158.853C498.174 159.196 498.071 159.746 497.865 160.502C497.659 161.258 497.556 162.22 497.556 163.388C497.556 165.656 498.003 168.13 498.896 170.81C499.789 173.421 500.682 176.204 501.575 179.159C502.468 182.045 502.914 185.068 502.914 188.229C502.914 189.123 502.845 190.016 502.708 190.909C502.639 191.734 502.502 192.524 502.296 193.28C504.7 192.868 506.967 191.803 509.096 190.085C511.226 188.298 513.287 185.481 515.279 181.633L516.206 182.663C514.901 186.443 512.943 189.329 510.333 191.322C507.723 193.246 504.872 194.448 501.781 194.929C500.682 197.884 498.93 200.049 496.526 201.423C494.19 202.797 491.545 203.485 488.592 203.485ZM488.798 199.877C489.622 199.877 490.721 199.602 492.095 199.052C493.469 198.503 494.534 197.094 495.289 194.826C492.404 194.277 489.828 193.143 487.561 191.425C485.363 189.707 483.715 187.989 482.615 186.271C481.104 186.34 480.349 187.542 480.349 189.879C480.349 192.352 481.07 194.654 482.512 196.785C484.024 198.846 486.119 199.877 488.798 199.877ZM495.804 193.177C495.942 192.49 496.045 191.768 496.114 191.012C496.182 190.257 496.217 189.363 496.217 188.332C496.217 185.103 495.804 181.907 494.98 178.746C494.224 175.517 493.572 172.493 493.022 169.676C491.442 172.287 489.759 174.795 487.973 177.2C486.256 179.537 484.608 181.495 483.028 183.076C484.058 185.275 485.638 187.336 487.767 189.26C489.966 191.184 492.645 192.49 495.804 193.177Z" fill="white"/>
<path d="M522.051 202.969C519.097 202.969 516.83 202.11 515.251 200.392C513.671 198.674 512.881 196.132 512.881 192.765C512.881 189.741 513.43 186.03 514.529 181.633C515.697 177.166 517.14 172.596 518.857 167.923C518.17 167.786 517.517 167.683 516.899 167.614C516.281 167.477 515.697 167.305 515.147 167.099V165.243C515.697 165.312 516.35 165.381 517.105 165.45C517.861 165.518 518.719 165.587 519.681 165.656C521.124 161.945 522.669 158.372 524.318 154.936C525.966 151.431 527.581 148.339 529.161 145.659C530.809 142.91 532.355 140.746 533.797 139.165C535.309 137.516 536.579 136.691 537.61 136.691C538.159 136.691 538.64 136.898 539.052 137.31C539.533 137.653 539.774 138.203 539.774 138.959C539.774 140.127 539.052 142.051 537.61 144.731C536.167 147.343 534.381 150.469 532.252 154.111C530.122 157.753 528.062 161.705 526.07 165.965C526.688 165.965 527.306 165.965 527.924 165.965C528.611 165.965 529.264 165.965 529.882 165.965C532.149 165.965 534.519 165.931 536.992 165.862C539.533 165.793 542.075 165.621 544.616 165.347V167.202C540.838 167.614 537.438 167.923 534.416 168.13C531.462 168.336 528.817 168.439 526.482 168.439C526.207 168.439 525.932 168.439 525.657 168.439C525.451 168.439 525.211 168.439 524.936 168.439C523.356 172.081 522.017 175.826 520.918 179.674C519.819 183.522 519.269 187.267 519.269 190.909C519.269 193.864 519.716 195.994 520.609 197.3C521.502 198.537 522.978 199.155 525.039 199.155C528.611 199.155 532.114 197.575 535.549 194.414C538.984 191.253 542.006 186.958 544.616 181.529L545.956 182.56C544.307 186.408 542.212 189.879 539.671 192.971C537.198 196.063 534.45 198.503 531.428 200.289C528.405 202.076 525.28 202.969 522.051 202.969Z" fill="white"/>
<path d="M549.785 201.526C546.831 201.526 544.736 200.599 543.499 198.743C542.263 196.956 541.644 194.758 541.644 192.146C541.644 190.016 541.988 187.817 542.675 185.549C543.362 183.282 544.255 181.152 545.354 179.159C546.522 177.166 547.792 175.551 549.166 174.314C550.609 173.077 552.051 172.459 553.494 172.459C553.837 172.459 554.181 172.528 554.524 172.665C554.936 172.734 555.314 172.837 555.658 172.974C555.039 173.524 554.284 174.555 553.391 176.066C552.567 177.51 551.777 179.193 551.021 181.117C550.265 182.973 549.613 184.828 549.063 186.683C548.582 188.539 548.342 190.119 548.342 191.425C548.342 193.486 548.685 194.998 549.372 195.96C550.059 196.853 550.952 197.3 552.051 197.3C553.494 197.3 555.211 196.544 557.203 195.032C559.195 193.452 561.153 191.459 563.076 189.054C561.153 187.474 559.642 185.412 558.543 182.869C557.512 180.258 556.997 177.613 556.997 174.933C556.997 172.665 557.375 170.535 558.131 168.542C558.955 166.549 560.123 164.969 561.634 163.8C563.145 162.564 564.966 161.945 567.095 161.945C569.911 161.945 571.8 162.701 572.762 164.213C573.724 165.724 574.205 167.614 574.205 169.882C574.205 172.562 573.552 175.551 572.247 178.849C570.942 182.079 569.293 185.206 567.301 188.229C568.537 188.917 569.843 189.26 571.217 189.26C572.316 189.26 573.552 189.054 574.926 188.642C576.3 188.161 577.639 187.37 578.944 186.271C580.318 185.171 581.417 183.694 582.242 181.839L583.478 182.869C582.104 186.099 580.147 188.401 577.605 189.776C575.132 191.081 572.762 191.734 570.495 191.734C569.602 191.734 568.744 191.665 567.919 191.528C567.095 191.322 566.305 191.047 565.549 190.703C563.214 193.795 560.638 196.372 557.821 198.434C555.074 200.495 552.395 201.526 549.785 201.526ZM564.931 186.374C566.648 183.831 568.057 181.186 569.156 178.437C570.324 175.62 570.907 172.974 570.907 170.5C570.907 168.508 570.598 167.064 569.98 166.171C569.43 165.209 568.709 164.728 567.816 164.728C566.442 164.728 565.034 165.724 563.592 167.717C562.149 169.71 561.428 172.218 561.428 175.242C561.428 177.235 561.703 179.262 562.252 181.323C562.87 183.316 563.763 185 564.931 186.374ZM570.598 154.524C570.117 154.249 569.74 153.802 569.465 153.184C569.259 152.565 569.156 152.118 569.156 151.844C569.156 151.225 569.499 150.263 570.186 148.957C570.942 147.583 571.869 146.174 572.968 144.731C574.067 143.22 575.235 141.948 576.471 140.918C577.708 139.887 578.841 139.371 579.872 139.371C580.421 139.371 580.902 139.612 581.314 140.093C581.795 140.505 582.07 141.33 582.139 142.567C579.666 144.697 577.502 146.724 575.647 148.648C573.792 150.572 572.109 152.531 570.598 154.524Z" fill="white"/>
<path d="M598.134 200.908C595.798 200.908 593.943 200.289 592.57 199.052C591.264 197.815 590.612 196.201 590.612 194.208C590.612 192.146 591.093 189.982 592.054 187.714C593.016 185.446 593.943 183.213 594.836 181.014C595.798 178.746 596.279 176.719 596.279 174.933C596.279 172.734 595.626 171.119 594.321 170.088C593.085 168.989 591.814 167.992 590.509 167.099C588.929 171.153 587.28 175.001 585.563 178.643C583.846 182.285 582.438 185.034 581.338 186.889L580.411 185.137C581.373 183.35 582.609 180.739 584.12 177.303C585.7 173.867 587.246 169.951 588.757 165.553C588.07 164.866 587.727 164.041 587.727 163.079C587.727 161.017 588.311 159.334 589.478 158.028C590.646 156.723 591.505 156.07 592.054 156.07C592.81 156.07 593.222 156.413 593.291 157.1C593.428 157.719 593.497 158.2 593.497 158.544C593.497 158.887 593.291 159.574 592.879 160.605C592.535 161.567 592.364 162.151 592.364 162.357C592.364 163.319 592.879 164.213 593.909 165.037C595.008 165.793 596.245 166.687 597.619 167.717C598.992 168.679 600.194 169.882 601.225 171.325C602.324 172.699 602.873 174.486 602.873 176.685C602.873 178.746 602.427 180.842 601.534 182.973C600.71 185.103 599.851 187.13 598.958 189.054C598.134 190.978 597.722 192.662 597.722 194.105C597.722 195.342 598.031 196.166 598.649 196.579C599.267 196.991 599.988 197.197 600.813 197.197C602.461 197.197 604.144 196.682 605.862 195.651C607.648 194.62 609.365 193.314 611.014 191.734C612.662 190.153 614.139 188.504 615.444 186.786C616.749 185 617.711 183.35 618.329 181.839L619.669 182.869C618.364 185.756 616.578 188.607 614.311 191.425C612.044 194.173 609.502 196.441 606.686 198.228C603.938 200.014 601.087 200.908 598.134 200.908Z" fill="white"/>
<path d="M623.549 200.908C620.87 200.908 618.878 200.049 617.573 198.331C616.267 196.682 615.615 194.654 615.615 192.249C615.615 190.669 615.89 188.676 616.439 186.271C617.057 183.866 617.847 181.358 618.809 178.746C619.771 176.066 620.87 173.558 622.106 171.222C623.411 168.885 624.785 166.996 626.228 165.553C627.67 164.041 629.079 163.285 630.452 163.285C631.071 163.285 631.586 163.491 631.998 163.903C632.479 164.247 632.719 164.797 632.719 165.553C632.719 166.377 632.17 167.717 631.071 169.573C630.04 171.428 628.804 173.558 627.361 175.963C625.919 178.368 624.648 180.911 623.549 183.591C622.518 186.202 622.003 188.71 622.003 191.116C622.003 193.589 622.415 195.239 623.24 196.063C624.064 196.888 625.335 197.3 627.052 197.3C629.388 197.3 631.861 196.132 634.471 193.795C637.15 191.459 639.966 187.37 642.92 181.529L643.847 182.56C641.855 188.47 638.97 193.005 635.192 196.166C631.483 199.327 627.602 200.908 623.549 200.908ZM635.913 153.699C634.814 153.699 633.818 153.424 632.925 152.874C632.101 152.325 631.689 151.466 631.689 150.297C631.689 148.854 632.513 147.618 634.162 146.587C635.879 145.487 637.562 144.938 639.211 144.938C640.241 144.938 641.065 145.178 641.684 145.659C642.302 146.14 642.611 146.965 642.611 148.133C642.611 149.439 641.89 150.71 640.447 151.947C639.073 153.115 637.562 153.699 635.913 153.699Z" fill="white"/>
<path d="M645.93 203.072C643.8 203.072 642.014 202.351 640.572 200.908C639.061 199.533 638.305 197.403 638.305 194.517C638.305 192.043 638.855 189.398 639.954 186.58C641.053 183.694 642.564 180.877 644.487 178.128C646.411 175.311 648.575 172.768 650.979 170.5C653.452 168.164 656.028 166.309 658.707 164.934C661.454 163.56 664.168 162.873 666.847 162.873C669.526 162.873 671.758 163.594 673.544 165.037C675.33 166.412 676.223 168.267 676.223 170.603C676.223 172.321 675.742 173.49 674.781 174.108C673.888 174.726 672.686 175.036 671.174 175.036C671.312 174.486 671.415 173.902 671.483 173.283C671.621 172.596 671.69 171.978 671.69 171.428C671.69 169.848 671.312 168.508 670.556 167.408C669.8 166.24 668.495 165.656 666.641 165.656C664.717 165.656 662.76 166.343 660.767 167.717C658.775 169.023 656.852 170.81 654.997 173.077C653.143 175.276 651.494 177.681 650.051 180.293C648.609 182.904 647.475 185.481 646.651 188.023C645.827 190.566 645.415 192.833 645.415 194.826C645.415 197.506 646.342 198.846 648.197 198.846C649.777 198.846 651.494 198.125 653.349 196.682C655.203 195.17 657.092 193.28 659.016 191.012C661.008 188.676 662.897 186.271 664.683 183.797C666.469 181.323 668.049 179.056 669.423 176.994C669.697 176.582 669.869 176.376 669.938 176.376C670.35 176.444 670.865 176.582 671.483 176.788C672.17 176.994 672.754 177.269 673.235 177.613C673.716 177.956 673.956 178.403 673.956 178.953C673.956 179.571 673.647 180.43 673.029 181.529C672.411 182.56 671.724 183.763 670.968 185.137C670.213 186.511 669.526 187.92 668.907 189.363C668.289 190.738 667.98 192.043 667.98 193.28C667.98 194.311 668.255 195.342 668.804 196.372C669.354 197.334 670.247 197.815 671.483 197.815C673.338 197.815 675.777 196.475 678.799 193.795C681.822 191.047 684.878 186.958 687.97 181.529L689 182.56C687.557 186.271 685.703 189.535 683.436 192.352C681.169 195.17 678.73 197.369 676.12 198.949C673.579 200.53 671.071 201.32 668.598 201.32C666.057 201.32 664.168 200.564 662.931 199.052C661.763 197.541 661.18 195.891 661.18 194.105C661.18 193.692 661.214 193.246 661.283 192.765C661.351 192.215 661.42 191.665 661.489 191.116C658.535 195.101 655.822 198.09 653.349 200.083C650.944 202.076 648.471 203.072 645.93 203.072Z" fill="white"/>
</svg>
