<svg xmlns="http://www.w3.org/2000/svg" version="1.1" xmlns:xlink="http://www.w3.org/1999/xlink" xmlns:svgjs="http://svgjs.com/svgjs" width="512" height="512" x="0" y="0" viewBox="0 0 512 512" style="enable-background:new 0 0 512 512" xml:space="preserve" class=""><g>
<circle xmlns="http://www.w3.org/2000/svg" style="" cx="256" cy="256" r="256" fill="#f0f0f0" data-original="#f0f0f0"></circle>
<g xmlns="http://www.w3.org/2000/svg">
	<path style="" d="M256,0C154.506,0,66.81,59.065,25.402,144.696h461.195C445.19,59.065,357.493,0,256,0z" fill="#338af3" data-original="#338af3" class=""></path>
	<path style="" d="M256,512c101.493,0,189.19-59.065,230.598-144.696H25.402C66.81,452.935,154.506,512,256,512z" fill="#338af3" data-original="#338af3" class=""></path>
</g>
<polygon xmlns="http://www.w3.org/2000/svg" style="" points="332.515,256 301.25,270.707 317.899,300.986 283.949,294.491 279.647,328.787 256,303.563   232.352,328.787 228.051,294.491 194.101,300.985 210.749,270.706 179.485,256 210.75,241.293 194.101,211.015 228.05,217.509   232.353,183.213 256,208.437 279.648,183.213 283.949,217.509 317.9,211.015 301.251,241.294 " fill="#ffda44" data-original="#ffda44"></polygon>
<g xmlns="http://www.w3.org/2000/svg">
</g>
<g xmlns="http://www.w3.org/2000/svg">
</g>
<g xmlns="http://www.w3.org/2000/svg">
</g>
<g xmlns="http://www.w3.org/2000/svg">
</g>
<g xmlns="http://www.w3.org/2000/svg">
</g>
<g xmlns="http://www.w3.org/2000/svg">
</g>
<g xmlns="http://www.w3.org/2000/svg">
</g>
<g xmlns="http://www.w3.org/2000/svg">
</g>
<g xmlns="http://www.w3.org/2000/svg">
</g>
<g xmlns="http://www.w3.org/2000/svg">
</g>
<g xmlns="http://www.w3.org/2000/svg">
</g>
<g xmlns="http://www.w3.org/2000/svg">
</g>
<g xmlns="http://www.w3.org/2000/svg">
</g>
<g xmlns="http://www.w3.org/2000/svg">
</g>
<g xmlns="http://www.w3.org/2000/svg">
</g>
</g></svg>